[api-updater (non-obsolete-error-filter)] 27/02/2021 19:47:25 : Starting C:/Program Files/Unity/Hub/Editor/2020.2.6f1/Editor/Data/Tools/ScriptUpdater/APIUpdater.NonObsoleteApiUpdaterDetector.exe
[api-updater (non-obsolete-error-filter)] 
----------------------------------
jit/startup time      : 566,9821ms
moved types parse time: 65ms
candidates parse time : 1ms
C# parse time         : 238ms
candidates check time : 42ms
console write time    : 0ms

[api-updater (non-obsolete-error-filter)] 27/02/2021 19:49:06 : Starting C:/Program Files/Unity/Hub/Editor/2020.2.6f1/Editor/Data/Tools/ScriptUpdater/APIUpdater.NonObsoleteApiUpdaterDetector.exe
[api-updater (non-obsolete-error-filter)] 
----------------------------------
jit/startup time      : 90,7566ms
moved types parse time: 62ms
candidates parse time : 1ms
C# parse time         : 260ms
candidates check time : 44ms
console write time    : 0ms

[api-updater (non-obsolete-error-filter)] 27/02/2021 19:49:25 : Starting C:/Program Files/Unity/Hub/Editor/2020.2.6f1/Editor/Data/Tools/ScriptUpdater/APIUpdater.NonObsoleteApiUpdaterDetector.exe
[api-updater (non-obsolete-error-filter)] 
----------------------------------
jit/startup time      : 83,3323ms
moved types parse time: 53ms
candidates parse time : 1ms
C# parse time         : 208ms
candidates check time : 42ms
console write time    : 0ms

[api-updater (non-obsolete-error-filter)] 27/02/2021 19:50:27 : Starting C:/Program Files/Unity/Hub/Editor/2020.2.6f1/Editor/Data/Tools/ScriptUpdater/APIUpdater.NonObsoleteApiUpdaterDetector.exe
[api-updater (non-obsolete-error-filter)] 
----------------------------------
jit/startup time      : 82,7478ms
moved types parse time: 57ms
candidates parse time : 1ms
C# parse time         : 204ms
candidates check time : 38ms
console write time    : 1ms

[api-updater (non-obsolete-error-filter)] 27/02/2021 19:51:11 : Starting C:/Program Files/Unity/Hub/Editor/2020.2.6f1/Editor/Data/Tools/ScriptUpdater/APIUpdater.NonObsoleteApiUpdaterDetector.exe
[api-updater (non-obsolete-error-filter)] 
----------------------------------
jit/startup time      : 83,5276ms
moved types parse time: 57ms
candidates parse time : 1ms
C# parse time         : 214ms
candidates check time : 37ms
console write time    : 0ms

[api-updater (non-obsolete-error-filter)] 27/02/2021 19:51:15 : Starting C:/Program Files/Unity/Hub/Editor/2020.2.6f1/Editor/Data/Tools/ScriptUpdater/APIUpdater.NonObsoleteApiUpdaterDetector.exe
[api-updater (non-obsolete-error-filter)] 
----------------------------------
jit/startup time      : 84,9897ms
moved types parse time: 55ms
candidates parse time : 1ms
C# parse time         : 205ms
candidates check time : 38ms
console write time    : 0ms

[api-updater (non-obsolete-error-filter)] 27/02/2021 19:52:21 : Starting C:/Program Files/Unity/Hub/Editor/2020.2.6f1/Editor/Data/Tools/ScriptUpdater/APIUpdater.NonObsoleteApiUpdaterDetector.exe
[api-updater (non-obsolete-error-filter)] 
----------------------------------
jit/startup time      : 89,2921ms
moved types parse time: 55ms
candidates parse time : 1ms
C# parse time         : 195ms
candidates check time : 37ms
console write time    : 0ms

[api-updater (non-obsolete-error-filter)] 27/02/2021 19:53:12 : Starting C:/Program Files/Unity/Hub/Editor/2020.2.6f1/Editor/Data/Tools/ScriptUpdater/APIUpdater.NonObsoleteApiUpdaterDetector.exe
[api-updater (non-obsolete-error-filter)] 
----------------------------------
jit/startup time      : 90,755ms
moved types parse time: 58ms
candidates parse time : 1ms
C# parse time         : 255ms
candidates check time : 39ms
console write time    : 0ms

[api-updater (non-obsolete-error-filter)] 27/02/2021 19:53:14 : Starting C:/Program Files/Unity/Hub/Editor/2020.2.6f1/Editor/Data/Tools/ScriptUpdater/APIUpdater.NonObsoleteApiUpdaterDetector.exe
[api-updater (non-obsolete-error-filter)] 
----------------------------------
jit/startup time      : 99,7588ms
moved types parse time: 53ms
candidates parse time : 1ms
C# parse time         : 209ms
candidates check time : 36ms
console write time    : 0ms

[api-updater (non-obsolete-error-filter)] 27/02/2021 19:53:39 : Starting C:/Program Files/Unity/Hub/Editor/2020.2.6f1/Editor/Data/Tools/ScriptUpdater/APIUpdater.NonObsoleteApiUpdaterDetector.exe
[api-updater (non-obsolete-error-filter)] 
----------------------------------
jit/startup time      : 122,1806ms
moved types parse time: 54ms
candidates parse time : 1ms
C# parse time         : 268ms
candidates check time : 42ms
console write time    : 0ms

[api-updater (non-obsolete-error-filter)] 27/02/2021 19:53:49 : Starting C:/Program Files/Unity/Hub/Editor/2020.2.6f1/Editor/Data/Tools/ScriptUpdater/APIUpdater.NonObsoleteApiUpdaterDetector.exe
[api-updater (non-obsolete-error-filter)] 
----------------------------------
jit/startup time      : 87,274ms
moved types parse time: 52ms
candidates parse time : 1ms
C# parse time         : 204ms
candidates check time : 37ms
console write time    : 0ms

[api-updater (non-obsolete-error-filter)] 27/02/2021 19:54:28 : Starting C:/Program Files/Unity/Hub/Editor/2020.2.6f1/Editor/Data/Tools/ScriptUpdater/APIUpdater.NonObsoleteApiUpdaterDetector.exe
[api-updater (non-obsolete-error-filter)] 
----------------------------------
jit/startup time      : 98,7621ms
moved types parse time: 54ms
candidates parse time : 1ms
C# parse time         : 201ms
candidates check time : 38ms
console write time    : 0ms

[api-updater (non-obsolete-error-filter)] 27/02/2021 20:25:42 : Starting C:/Program Files/Unity/Hub/Editor/2020.2.6f1/Editor/Data/Tools/ScriptUpdater/APIUpdater.NonObsoleteApiUpdaterDetector.exe
[api-updater (non-obsolete-error-filter)] 
----------------------------------
jit/startup time      : 83,9253ms
moved types parse time: 51ms
candidates parse time : 1ms
C# parse time         : 207ms
candidates check time : 47ms
console write time    : 0ms

[api-updater (non-obsolete-error-filter)] 27/02/2021 20:40:49 : Starting C:/Program Files/Unity/Hub/Editor/2020.2.6f1/Editor/Data/Tools/ScriptUpdater/APIUpdater.NonObsoleteApiUpdaterDetector.exe
[api-updater (non-obsolete-error-filter)] 
----------------------------------
jit/startup time      : 82,8058ms
moved types parse time: 55ms
candidates parse time : 1ms
C# parse time         : 205ms
candidates check time : 30ms
console write time    : 0ms

[api-updater (non-obsolete-error-filter)] 27/02/2021 23:49:53 : Starting C:/Program Files/Unity/Hub/Editor/2020.2.6f1/Editor/Data/Tools/ScriptUpdater/APIUpdater.NonObsoleteApiUpdaterDetector.exe
[api-updater (non-obsolete-error-filter)] 
----------------------------------
jit/startup time      : 111,6694ms
moved types parse time: 61ms
candidates parse time : 1ms
C# parse time         : 198ms
candidates check time : 33ms
console write time    : 0ms

[api-updater (non-obsolete-error-filter)] 27/02/2021 23:50:02 : Starting C:/Program Files/Unity/Hub/Editor/2020.2.6f1/Editor/Data/Tools/ScriptUpdater/APIUpdater.NonObsoleteApiUpdaterDetector.exe
[api-updater (non-obsolete-error-filter)] 
----------------------------------
jit/startup time      : 106,7111ms
moved types parse time: 53ms
candidates parse time : 1ms
C# parse time         : 196ms
candidates check time : 31ms
console write time    : 0ms

[api-updater (non-obsolete-error-filter)] 27/02/2021 23:53:41 : Starting C:/Program Files/Unity/Hub/Editor/2020.2.6f1/Editor/Data/Tools/ScriptUpdater/APIUpdater.NonObsoleteApiUpdaterDetector.exe
[api-updater (non-obsolete-error-filter)] 
----------------------------------
jit/startup time      : 94,7464ms
moved types parse time: 52ms
candidates parse time : 1ms
C# parse time         : 229ms
candidates check time : 54ms
console write time    : 0ms

[api-updater (non-obsolete-error-filter)] 27/02/2021 23:53:45 : Starting C:/Program Files/Unity/Hub/Editor/2020.2.6f1/Editor/Data/Tools/ScriptUpdater/APIUpdater.NonObsoleteApiUpdaterDetector.exe
[api-updater (non-obsolete-error-filter)] 
----------------------------------
jit/startup time      : 84,9657ms
moved types parse time: 51ms
candidates parse time : 1ms
C# parse time         : 224ms
candidates check time : 63ms
console write time    : 0ms

[api-updater (non-obsolete-error-filter)] 28/02/2021 00:35:02 : Starting C:/Program Files/Unity/Hub/Editor/2020.2.6f1/Editor/Data/Tools/ScriptUpdater/APIUpdater.NonObsoleteApiUpdaterDetector.exe
[api-updater (non-obsolete-error-filter)] 
----------------------------------
jit/startup time      : 134,6389ms
moved types parse time: 54ms
candidates parse time : 1ms
C# parse time         : 197ms
candidates check time : 42ms
console write time    : 0ms

[api-updater (non-obsolete-error-filter)] 28/02/2021 00:40:43 : Starting C:/Program Files/Unity/Hub/Editor/2020.2.6f1/Editor/Data/Tools/ScriptUpdater/APIUpdater.NonObsoleteApiUpdaterDetector.exe
[api-updater (non-obsolete-error-filter)] 
----------------------------------
jit/startup time      : 107,7109ms
moved types parse time: 55ms
candidates parse time : 1ms
C# parse time         : 204ms
candidates check time : 46ms
console write time    : 0ms

[api-updater (non-obsolete-error-filter)] 28/02/2021 00:42:42 : Starting C:/Program Files/Unity/Hub/Editor/2020.2.6f1/Editor/Data/Tools/ScriptUpdater/APIUpdater.NonObsoleteApiUpdaterDetector.exe
[api-updater (non-obsolete-error-filter)] 
----------------------------------
jit/startup time      : 137,1425ms
moved types parse time: 53ms
candidates parse time : 1ms
C# parse time         : 193ms
candidates check time : 49ms
console write time    : 0ms

[api-updater (non-obsolete-error-filter)] 28/02/2021 00:43:13 : Starting C:/Program Files/Unity/Hub/Editor/2020.2.6f1/Editor/Data/Tools/ScriptUpdater/APIUpdater.NonObsoleteApiUpdaterDetector.exe
[api-updater (non-obsolete-error-filter)] 
----------------------------------
jit/startup time      : 87,0004ms
moved types parse time: 52ms
candidates parse time : 1ms
C# parse time         : 291ms
candidates check time : 54ms
console write time    : 0ms

[api-updater (non-obsolete-error-filter)] 28/02/2021 00:55:36 : Starting C:/Program Files/Unity/Hub/Editor/2020.2.6f1/Editor/Data/Tools/ScriptUpdater/APIUpdater.NonObsoleteApiUpdaterDetector.exe
[api-updater (non-obsolete-error-filter)] 
----------------------------------
jit/startup time      : 85,7712ms
moved types parse time: 53ms
candidates parse time : 1ms
C# parse time         : 207ms
candidates check time : 64ms
console write time    : 0ms

[api-updater (non-obsolete-error-filter)] 28/02/2021 00:57:07 : Starting C:/Program Files/Unity/Hub/Editor/2020.2.6f1/Editor/Data/Tools/ScriptUpdater/APIUpdater.NonObsoleteApiUpdaterDetector.exe
[api-updater (non-obsolete-error-filter)] 
----------------------------------
jit/startup time      : 148,9843ms
moved types parse time: 56ms
candidates parse time : 1ms
C# parse time         : 206ms
candidates check time : 51ms
console write time    : 0ms

[api-updater (non-obsolete-error-filter)] 28/02/2021 01:25:11 : Starting C:/Program Files/Unity/Hub/Editor/2020.2.6f1/Editor/Data/Tools/ScriptUpdater/APIUpdater.NonObsoleteApiUpdaterDetector.exe
[api-updater (non-obsolete-error-filter)] 
----------------------------------
jit/startup time      : 100,7303ms
moved types parse time: 54ms
candidates parse time : 1ms
C# parse time         : 228ms
candidates check time : 49ms
console write time    : 0ms

[api-updater (non-obsolete-error-filter)] 28/02/2021 01:36:16 : Starting C:/Program Files/Unity/Hub/Editor/2020.2.6f1/Editor/Data/Tools/ScriptUpdater/APIUpdater.NonObsoleteApiUpdaterDetector.exe
[api-updater (non-obsolete-error-filter)] 
----------------------------------
jit/startup time      : 79,8141ms
moved types parse time: 51ms
candidates parse time : 1ms
C# parse time         : 192ms
candidates check time : 52ms
console write time    : 0ms

[api-updater (non-obsolete-error-filter)] 28/02/2021 01:37:47 : Starting C:/Program Files/Unity/Hub/Editor/2020.2.6f1/Editor/Data/Tools/ScriptUpdater/APIUpdater.NonObsoleteApiUpdaterDetector.exe
[api-updater (non-obsolete-error-filter)] 
----------------------------------
jit/startup time      : 100,7563ms
moved types parse time: 51ms
candidates parse time : 1ms
C# parse time         : 191ms
candidates check time : 52ms
console write time    : 0ms

[api-updater (non-obsolete-error-filter)] 28/02/2021 01:39:04 : Starting C:/Program Files/Unity/Hub/Editor/2020.2.6f1/Editor/Data/Tools/ScriptUpdater/APIUpdater.NonObsoleteApiUpdaterDetector.exe
[api-updater (non-obsolete-error-filter)] 
----------------------------------
jit/startup time      : 80,7824ms
moved types parse time: 51ms
candidates parse time : 1ms
C# parse time         : 192ms
candidates check time : 50ms
console write time    : 0ms

[api-updater (non-obsolete-error-filter)] 28/02/2021 01:40:18 : Starting C:/Program Files/Unity/Hub/Editor/2020.2.6f1/Editor/Data/Tools/ScriptUpdater/APIUpdater.NonObsoleteApiUpdaterDetector.exe
[api-updater (non-obsolete-error-filter)] 
----------------------------------
jit/startup time      : 119,6458ms
moved types parse time: 51ms
candidates parse time : 1ms
C# parse time         : 189ms
candidates check time : 53ms
console write time    : 0ms

[api-updater (non-obsolete-error-filter)] 28/02/2021 15:00:32 : Starting C:/Program Files/Unity/Hub/Editor/2020.2.6f1/Editor/Data/Tools/ScriptUpdater/APIUpdater.NonObsoleteApiUpdaterDetector.exe
[api-updater (non-obsolete-error-filter)] 
----------------------------------
jit/startup time      : 120,3029ms
moved types parse time: 53ms
candidates parse time : 1ms
C# parse time         : 209ms
candidates check time : 38ms
console write time    : 0ms

[api-updater (non-obsolete-error-filter)] 28/02/2021 15:00:47 : Starting C:/Program Files/Unity/Hub/Editor/2020.2.6f1/Editor/Data/Tools/ScriptUpdater/APIUpdater.NonObsoleteApiUpdaterDetector.exe
[api-updater (non-obsolete-error-filter)] 
----------------------------------
jit/startup time      : 80,7841ms
moved types parse time: 54ms
candidates parse time : 1ms
C# parse time         : 202ms
candidates check time : 37ms
console write time    : 0ms

[api-updater (non-obsolete-error-filter)] 28/02/2021 15:00:49 : Starting C:/Program Files/Unity/Hub/Editor/2020.2.6f1/Editor/Data/Tools/ScriptUpdater/APIUpdater.NonObsoleteApiUpdaterDetector.exe
[api-updater (non-obsolete-error-filter)] 
----------------------------------
jit/startup time      : 85,7707ms
moved types parse time: 57ms
candidates parse time : 1ms
C# parse time         : 236ms
candidates check time : 41ms
console write time    : 0ms

[api-updater (non-obsolete-error-filter)] 28/02/2021 15:11:45 : Starting C:/Program Files/Unity/Hub/Editor/2020.2.6f1/Editor/Data/Tools/ScriptUpdater/APIUpdater.NonObsoleteApiUpdaterDetector.exe
[api-updater (non-obsolete-error-filter)] 
----------------------------------
jit/startup time      : 85,7701ms
moved types parse time: 53ms
candidates parse time : 1ms
C# parse time         : 212ms
candidates check time : 47ms
console write time    : 0ms

[api-updater (non-obsolete-error-filter)] 28/02/2021 18:09:08 : Starting C:/Program Files/Unity/Hub/Editor/2020.2.6f1/Editor/Data/Tools/ScriptUpdater/APIUpdater.NonObsoleteApiUpdaterDetector.exe
[api-updater (non-obsolete-error-filter)] 
----------------------------------
jit/startup time      : 105,2256ms
moved types parse time: 52ms
candidates parse time : 1ms
C# parse time         : 200ms
candidates check time : 46ms
console write time    : 0ms

[api-updater (non-obsolete-error-filter)] 28/02/2021 18:57:07 : Starting C:/Program Files/Unity/Hub/Editor/2020.2.6f1/Editor/Data/Tools/ScriptUpdater/APIUpdater.NonObsoleteApiUpdaterDetector.exe
[api-updater (non-obsolete-error-filter)] 
----------------------------------
jit/startup time      : 138,6289ms
moved types parse time: 52ms
candidates parse time : 1ms
C# parse time         : 194ms
candidates check time : 48ms
console write time    : 0ms

[api-updater (non-obsolete-error-filter)] 28/02/2021 18:57:34 : Starting C:/Program Files/Unity/Hub/Editor/2020.2.6f1/Editor/Data/Tools/ScriptUpdater/APIUpdater.NonObsoleteApiUpdaterDetector.exe
[api-updater (non-obsolete-error-filter)] 
----------------------------------
jit/startup time      : 82,7786ms
moved types parse time: 51ms
candidates parse time : 1ms
C# parse time         : 192ms
candidates check time : 45ms
console write time    : 0ms

